March 01 - 8000000 - monthly
April 01 - 8000000 - monthly
May 01 - 8000000 - monthly
June 01 - 8000000 - monthly
July 01 - 8000000 - monthly
August 01 - 8000000 - monthly
September 01 - 8000000 - monthly
October 01 - 8000000 - monthly
November 01 - 8000000 - monthly
December 01 - 8000000 - monthly
December 11 - 6666660 - THR
